digraph "AntThread"
{
  edge [fontname="Helvetica",fontsize="10",labelfontname="Helvetica",labelfontsize="10"];
  node [fontname="Helvetica",fontsize="10",shape=record];
  Node2 [label="{AntThread\n||+ AntThread()\l+ ~AntThread()\l+ run()\l+ finish()\l+ pause()\l+ isRunnung()\l}",height=0.2,width=0.4,color="black", fillcolor="grey75", style="filled", fontcolor="black"];
  Node3 -> Node2 [dir="back",color="midnightblue",fontsize="10",style="solid",arrowtail="onormal",fontname="Helvetica"];
  Node3 [label="{QThread\n||}",height=0.2,width=0.4,color="grey75", fillcolor="white", style="filled"];
}
