digraph "Graphical Class Hierarchy"
{
  edge [fontname="Helvetica",fontsize="10",labelfontname="Helvetica",labelfontsize="10"];
  node [fontname="Helvetica",fontsize="10",shape=record];
  rankdir="LR";
  Node0 [label="QThread",height=0.2,width=0.4,color="grey75", fillcolor="white", style="filled"];
  Node0 -> Node0 [dir="back",color="midnightblue",fontsize="10",style="solid",fontname="Helvetica"];
  Node0 [label="AntThread",height=0.2,width=0.4,color="black", fillcolor="white", style="filled",URL="$classAntThread.html"];
}
